Biostat 203B Homework 2 Solutions
…
## Parsed with column specification:
## cols(
##   subject_id = col_double(),
##   hadm_id = col_double(),
##   stay_id = col_double(),
##   first_careunit = col_character(),
##   last_careunit = col_character(),
##   intime = col_datetime(format = ""),
##   outtime = col_datetime(format = ""),
##   los = col_double()
## )

## # A tibble: 69,619 x 8
##    subject_id  hadm_id  stay_id first_careunit                     
##         <dbl>    <dbl>    <dbl> <chr>                              
##  1   17823467 27561644 35964304 Coronary Care Unit (CCU)           
##  2   15772648 26147926 39637383 Trauma SICU (TSICU)                
##  3   13713711 25848902 36363748 Trauma SICU (TSICU)                
##  4   13173210 22338446 38210858 Coronary Care Unit (CCU)           
##  5   10213765 28522861 39765853 Trauma SICU (TSICU)                
##  6   17530304 21776160 35848367 Trauma SICU (TSICU)                
##  7   10297774 20364526 37788595 Coronary Care Unit (CCU)           
##  8   16766597 21185791 39262919 Trauma SICU (TSICU)                
##  9   17684317 28656350 36989766 Trauma SICU (TSICU)                
## 10   15693895 21203492 34766377 Surgical Intensive Care Unit (SICU)
##    last_careunit                       intime              outtime            
##    <chr>                               <dttm>              <dttm>             
##  1 Coronary Care Unit (CCU)            2138-05-09 05:08:00 2138-05-11 16:55:34
##  2 Trauma SICU (TSICU)                 2146-06-18 18:35:00 2146-06-21 17:41:00
##  3 Trauma SICU (TSICU)                 2157-09-15 15:30:00 2157-09-17 18:18:49
##  4 Coronary Care Unit (CCU)            2178-02-12 17:13:50 2178-02-15 14:55:14
##  5 Trauma SICU (TSICU)                 2113-04-10 14:11:00 2113-04-11 10:55:19
##  6 Trauma SICU (TSICU)                 2129-03-21 07:09:00 2129-03-23 20:23:23
##  7 Coronary Care Unit (CCU)            2194-05-10 21:35:40 2194-05-13 14:58:11
##  8 Trauma SICU (TSICU)                 2115-07-11 23:15:59 2115-07-13 16:52:06
##  9 Trauma SICU (TSICU)                 2148-04-14 22:03:00 2148-04-15 22:36:50
## 10 Surgical Intensive Care Unit (SICU) 2147-06-02 23:31:46 2147-06-15 15:56:59
##       los
##     <dbl>
##  1  2.49 
##  2  2.96 
##  3  2.12 
##  4  2.90 
##  5  0.864
##  6  2.55 
##  7  2.72 
##  8  1.73 
##  9  1.02 
## 10 12.7  
## # ... with 69,609 more rows
…
##   dischtime = col_datetime(format = ""),
##   deathtime = col_datetime(format = ""),
##   admission_type = col_character(),
##   admission_location = col_character(),
##   discharge_location = col_character(),
##   insurance = col_character(),
##   language = col_character(),
##   marital_status = col_character(),
##   ethnicity = col_character(),
##   edregtime = col_datetime(format = ""),
##   edouttime = col_datetime(format = ""),
##   hospital_expire_flag = col_double()
## )

## # A tibble: 524,520 x 15
##    subject_id  hadm_id admittime           dischtime          
##         <dbl>    <dbl> <dttm>              <dttm>             
##  1   12427812 21593330 2184-01-06 11:51:00 2184-01-10 11:45:00
##  2   14029832 22059088 2120-01-18 01:28:00 2120-01-20 16:13:00
##  3   14495017 22484010 2175-01-28 15:41:00 2175-01-29 16:00:00
##  4   13676048 23865469 2193-01-19 05:27:00 2193-01-24 18:59:00
##  5   13831972 27763544 2131-01-27 04:03:00 2131-01-27 05:39:00
##  6   18523038 25414328 2142-08-26 17:14:00 2142-08-27 10:00:00
##  7   16705931 20580522 2174-10-24 11:30:00 2174-10-24 18:45:00
##  8   19963742 24951506 2171-07-04 15:58:00 2171-07-05 13:37:00
##  9   10903424 22568585 2181-01-31 13:09:00 2181-01-31 13:42:00
## 10   15030422 21975876 2149-09-21 23:54:00 2149-09-22 03:59:00
##    deathtime           admission_type         admission_location    
##    <dttm>              <chr>                  <chr>                 
##  1 NA                  URGENT                 PHYSICIAN REFERRAL    
##  2 NA                  URGENT                 TRANSFER FROM HOSPITAL
##  3 NA                  DIRECT EMER.           PHYSICIAN REFERRAL    
##  4 NA                  URGENT                 PHYSICIAN REFERRAL    
##  5 NA                  EU OBSERVATION         EMERGENCY ROOM        
##  6 NA                  DIRECT OBSERVATION     PROCEDURE SITE        
##  7 NA                  DIRECT OBSERVATION     PHYSICIAN REFERRAL    
##  8 NA                  AMBULATORY OBSERVATION PACU                  
##  9 NA                  EU OBSERVATION         EMERGENCY ROOM        
## 10 NA                  EU OBSERVATION         EMERGENCY ROOM        
##    discharge_location insurance language marital_status ethnicity
##    <chr>              <chr>     <chr>    <chr>          <chr>    
##  1 HOME               Other     ENGLISH  <NA>           UNKNOWN  
##  2 HOME               Other     ENGLISH  <NA>           OTHER    
##  3 HOME               Other     ?        <NA>           WHITE    
##  4 HOME               Other     ?        MARRIED        WHITE    
##  5 <NA>               Medicaid  ENGLISH  SINGLE         WHITE    
##  6 <NA>               Other     ENGLISH  SINGLE         WHITE    
##  7 <NA>               Other     ENGLISH  MARRIED        WHITE    
##  8 <NA>               Other     ENGLISH  SINGLE         UNKNOWN  
##  9 <NA>               Other     ENGLISH  SINGLE         WHITE    
## 10 <NA>               Other     ENGLISH  SINGLE         WHITE    
##    edregtime           edouttime           hospital_expire_flag
##    <dttm>              <dttm>                             <dbl>
##  1 NA                  NA                                     0
##  2 NA                  NA                                     0
##  3 NA                  NA                                     0
##  4 NA                  NA                                     0
##  5 2131-01-26 22:19:00 2131-01-27 05:39:00                    0
##  6 NA                  NA                                     0
##  7 NA                  NA                                     0
##  8 NA                  NA                                     0
##  9 NA                  NA                                     0
## 10 NA                  NA                                     0
## # ... with 524,510 more rows
…
patients <- read_csv(paste0(mimic_path, "/core/patients.csv.gz"))  %>%
  print(width = Inf)

## Parsed with column specification:
## cols(
##   subject_id = col_double(),
##   gender = col_character(),
##   anchor_age = col_double(),
##   anchor_year = col_double(),
##   anchor_year_group = col_character(),
##   dod = col_logical()
## )

## # A tibble: 383,220 x 6
##    subject_id gender anchor_age anchor_year anchor_year_group dod  
##         <dbl> <chr>       <dbl>       <dbl> <chr>             <lgl>
##  1   10002723 F               0        2128 2017 - 2019       NA   
##  2   10003939 M               0        2184 2008 - 2010       NA   
##  3   10004222 M               0        2161 2014 - 2016       NA   
##  4   10005325 F               0        2154 2011 - 2013       NA   
##  5   10007338 F               0        2153 2017 - 2019       NA   
##  6   10008101 M               0        2142 2008 - 2010       NA   
##  7   10009872 F               0        2168 2014 - 2016       NA   
##  8   10011333 F               0        2132 2014 - 2016       NA   
##  9   10011879 M               0        2158 2014 - 2016       NA   
## 10   10012663 F               0        2171 2011 - 2013       NA   
## # ... with 383,210 more rows
…
## Parsed with column specification:
## cols(
##   itemid = col_double(),
##   label = col_character(),
##   abbreviation = col_character(),
##   linksto = col_character(),
##   category = col_character(),
##   unitname = col_character(),
##   param_type = col_character(),
##   lownormalvalue = col_double(),
##   highnormalvalue = col_double()
## )

## # A tibble: 3,835 x 9
##    itemid label                                abbreviation       linksto       
##     <dbl> <chr>                                <chr>              <chr>         
##  1 220003 ICU Admission date                   ICU Admission date datetimeevents
##  2 220045 Heart Rate                           HR                 chartevents   
##  3 220046 Heart rate Alarm - High              HR Alarm - High    chartevents   
##  4 220047 Heart Rate Alarm - Low               HR Alarm - Low     chartevents   
##  5 220048 Heart Rhythm                         Heart Rhythm       chartevents   
##  6 220050 Arterial Blood Pressure systolic     ABPs               chartevents   
##  7 220051 Arterial Blood Pressure diastolic    ABPd               chartevents   
##  8 220052 Arterial Blood Pressure mean         ABPm               chartevents   
##  9 220056 Arterial Blood Pressure Alarm - Low  ABP Alarm - Low    chartevents   
## 10 220058 Arterial Blood Pressure Alarm - High ABP Alarm - High   chartevents   
##    category            unitname param_type    lownormalvalue highnormalvalue
##    <chr>               <chr>    <chr>                  <dbl>           <dbl>
##  1 ADT                 <NA>     Date and time             NA              NA
##  2 Routine Vital Signs bpm      Numeric                   NA              NA
##  3 Alarms              bpm      Numeric                   NA              NA
##  4 Alarms              bpm      Numeric                   NA              NA
##  5 Routine Vital Signs <NA>     Text                      NA              NA
##  6 Routine Vital Signs mmHg     Numeric                   90             140
##  7 Routine Vital Signs mmHg     Numeric                   60              90
##  8 Routine Vital Signs mmHg     Numeric                   NA              NA
##  9 Alarms              mmHg     Numeric                   NA              NA
## 10 Alarms              mmHg     Numeric                   NA              NA
## # ... with 3,825 more rows
…
chartevents <- fread(paste0(mimic_derived_path, 
                            "/chartevents_filtered_itemid.csv.gz"), 
                     header = FALSE,
                     col.names = c("subject_id",
                                   "hadm_id",
                                   "stay_id", 
                                   "charttime",
                                   "itemid",
                                   "valuenum"), nThread = 4) %>%
  as_tibble() %>%
  mutate_at(c("subject_id", "hadm_id", "stay_id", "itemid"), as.numeric) %>%
  mutate(charttime = ymd_hms(charttime)) %>%
  print(width = Inf)

## # A tibble: 30,095,996 x 6
##    subject_id  hadm_id  stay_id charttime           itemid valuenum
##         <dbl>    <dbl>    <dbl> <dttm>               <dbl>    <dbl>
##  1   10003700 28623837 35053963 2165-04-24 05:28:00 220179    152  
##  2   10003700 28623837 35053963 2165-04-24 05:28:00 220181    110  
##  3   10003700 28623837 35053963 2165-04-24 05:30:00 220045     65  
##  4   10003700 28623837 35053963 2165-04-24 05:30:00 220210     14  
##  5   10003700 28623837 35053963 2165-04-24 05:38:00 223761     97.6
##  6   10003700 28623837 35053963 2165-04-24 06:00:00 220045     56  
##  7   10003700 28623837 35053963 2165-04-24 06:00:00 220179    126  
##  8   10003700 28623837 35053963 2165-04-24 06:00:00 220181     88  
##  9   10003700 28623837 35053963 2165-04-24 06:00:00 220210     14  
## 10   10003700 28623837 35053963 2165-04-24 06:09:00 220045     55  
## # ... with 30,095,986 more rows

labevents <- fread(paste0(mimic_derived_path, 
                          "/labevents_filtered_itemid.csv.gz"), 
                   header = FALSE,
                   col.names = c("subject_id", "hadm_id", "itemid", 
                                 "charttime", "valuenum"), nThread = 4) %>%
  as_tibble() %>%
  mutate_at(c("subject_id", "hadm_id", "itemid"), as.numeric) %>%
  mutate(charttime = ymd_hms(charttime)) %>%
  print(width = Inf)

## # A tibble: 30,773,355 x 5
##    subject_id  hadm_id itemid charttime           valuenum
##         <dbl>    <dbl>  <dbl> <dttm>                 <dbl>
##  1   12455438 24471620  51301 2151-05-06 04:45:00     16.3
##  2   12455438 24471620  50882 2151-05-06 04:45:00     23  
##  3   12455438 24471620  50893 2151-05-06 04:45:00      8.8
##  4   12455438 24471620  50902 2151-05-06 04:45:00    106  
##  5   12455438 24471620  50912 2151-05-06 04:45:00      0.7
##  6   12455438 24471620  50960 2151-05-06 04:45:00      2.4
##  7   12455438 24471620  50882 2151-05-06 17:16:00     23  
##  8   12455438 24471620  50893 2151-05-06 17:16:00      8.9
##  9   12455438 24471620  50902 2151-05-06 17:16:00    106  
## 10   12455438 24471620  50912 2151-05-06 17:16:00      0.8
## # ... with 30,773,345 more rows
…
            by = c("subject_id", "hadm_id")) %>%
  # only keep lab items after ICU intime %>%
  filter(charttime >= intime) %>%
  group_by(subject_id, itemid) %>%
  # only keep the first lab measurements for each item
  dplyr::arrange(charttime, .by_group = TRUE) %>%
  slice_head(n = 1) %>%
  # Drop the charttime and intime columns
  select(-charttime, -intime) %>%
  spread(key = itemid, value = valuenum) %>%
  rename_at(vars(as.character(labitem_itemid$itemid)), 
            ~labitem_itemid$labitem) %>% 
  print(width = Inf)

## # A tibble: 49,309 x 13
## # Groups:   subject_id [49,309]
##    subject_id  hadm_id lactate bicarbonate calcium chloride creatinine glucose
##         <dbl>    <dbl>   <dbl>       <dbl>   <dbl>    <dbl>      <dbl>   <dbl>
##  1   10000032 29079034    NA            21     9.3      102        0.5     115
##  2   10000980 26913865    NA            23     9.2      103        2.2     144
##  3   10001217 24597018    NA            23     8.2      104        0.4     113
##  4   10001725 25563031    NA            24     9.1      106        0.8     146
##  5   10001884 26184834     1.5          33     9.8       96        1.1     148
##  6   10002013 23581541     3.3          23    NA        109        1.1      98
##  7   10002155 23822395    NA            25     8.8      106        0.9      95
##  8   10002223 22494570    NA            26     8.7      102        0.8      88
##  9   10002428 28662225     1.6          20     7.4       98        0.8      99
## 10   10002443 21329021     1.7          20     7.6      101        0.8     226
##    magnesium potassium sodium hematocrit `white blood cell`
##        <dbl>     <dbl>  <dbl>      <dbl>              <dbl>
##  1       2.3       4.7    132       34.8                4.1
##  2       2         4.2    139       30.8                5.4
##  3       1.9       3.6    138       33.6               19  
##  4       1.5       3.9    140       39.1               17  
##  5       2.2       4      136       36                 18.4
##  6       2.1       4      140       28.6               18.2
##  7       2         4.5    139       37.9                5.5
##  8       2         3.9    138       32.5               10.1
##  9       1.4       3.9    129       28.7               22.4
## 10       1.6       5.2    133       43.4               20.7
## # ... with 49,299 more rows
…
            by = c("subject_id", "hadm_id")) %>%
  # only keep vital items after ICU intime %>%
  filter(charttime >= intime) %>%
  group_by(subject_id, itemid) %>%
  # only keep the first vital measurements for each item
  dplyr::arrange(charttime, .by_group = TRUE) %>%
  slice_head(n = 1) %>%
  # Drop the charttime and intime columns
  select(-charttime, -intime) %>%
  spread(key = itemid, value = valuenum) %>%
  rename_at(vars(as.character(chartitem_itemid$itemid)), 
            ~chartitem_itemid$label) %>% 
  print(width = Inf)

## # A tibble: 50,682 x 10
## # Groups:   subject_id [49,965]
##    subject_id  hadm_id  stay_id `Heart Rate` `Arterial Blood Pressure systolic`
##         <dbl>    <dbl>    <dbl>        <dbl>                              <dbl>
##  1   10000032 29079034 37529680           91                                 NA
##  2   10000980 26913865 36742749           77                                 NA
##  3   10001217 24597018 30327812           86                                 NA
##  4   10001725 25563031 37542711           55                                 NA
##  5   10001884 26184834 31832304           38                                 NA
##  6   10002013 23581541 37106138           80                                134
##  7   10002155 23822395 34599502           68                                115
##  8   10002223 22494570 39908879          100                                 NA
##  9   10002428 28662225 31956612          124                                 NA
## 10   10002428 28662225 39157783           NA                                102
##    `Arterial Blood Pressure mean` `Non Invasive Blood Pressure systolic`
##                             <dbl>                                  <dbl>
##  1                             NA                                     84
##  2                             NA                                    150
##  3                             NA                                    151
##  4                             NA                                     73
##  5                             NA                                    180
##  6                             94                                    104
##  7                             82                                    126
##  8                             NA                                    123
##  9                             NA                                     87
## 10                             69                                     NA
##    `Non Invasive Blood Pressure mean` `Respiratory Rate`
##                                 <dbl>              <dbl>
##  1                                 56                 24
##  2                                 92                 23
##  3                                104                 18
##  4                                 59                 19
##  5                                 46                 10
##  6                                 77                 14
##  7                                 78                 18
##  8                                 80                 29
##  9                                 53                 25
## 10                                 NA                 NA
##    `Temperature Fahrenheit`
##                       <dbl>
##  1                     98.7
##  2                     98  
##  3                     98.5
##  4                     97.7
##  5                     98.1
##  6                     97.2
##  7                     95.9
##  8                     98.6
##  9                    103. 
## 10                     NA  
## # ... with 50,672 more rows
…
